<svg xmlns="http://www.w3.org/2000/svg" width="69" height="69" viewBox="0 0 69 69">
  <g id="backlink-icon" transform="translate(-1137 -672)">
    <circle id="smiling-young-woman-working-laptop-office" cx="34.5" cy="34.5" r="34.5" transform="translate(1137 672)" fill="#e69184"/>
    <g id="Group_5724" data-name="Group 5724">
      <g id="Group_5723" data-name="Group 5723">
        <path id="Path_1606" data-name="Path 1606" d="M47.2,16H22.021a1.644,1.644,0,0,0-1.642,1.642v.547h-.547a1.644,1.644,0,0,0-1.642,1.642v.547h-.547A1.644,1.644,0,0,0,16,22.021V47.2a1.644,1.644,0,0,0,1.642,1.642H42.819A1.644,1.644,0,0,0,44.461,47.2V46.65h.547a1.644,1.644,0,0,0,1.642-1.642v-.547H47.2a1.644,1.644,0,0,0,1.642-1.642V17.642A1.644,1.644,0,0,0,47.2,16ZM43.366,47.2a.548.548,0,0,1-.547.547H17.642a.548.548,0,0,1-.547-.547V22.021a.548.548,0,0,1,.547-.547h.547V45.008a1.644,1.644,0,0,0,1.642,1.642H43.366Zm2.189-2.189a.548.548,0,0,1-.547.547H19.831a.548.548,0,0,1-.547-.547V19.831a.548.548,0,0,1,.547-.547h.547V42.819a1.644,1.644,0,0,0,1.642,1.642H45.556Zm2.189-2.189a.548.548,0,0,1-.547.547H22.021a.548.548,0,0,1-.547-.547V17.642a.548.548,0,0,1,.547-.547H47.2a.548.548,0,0,1,.547.547Z" transform="translate(1139.08 674.08)" fill="#fff"/>
        <path id="Path_1607" data-name="Path 1607" d="M112,112h24.082v1.095H112Z" transform="translate(1049.648 584.648)" fill="#fff"/>
        <path id="Path_1608" data-name="Path 1608" d="M225.642,48a1.642,1.642,0,1,0,1.642,1.642A1.642,1.642,0,0,0,225.642,48Zm0,2.189a.547.547,0,1,1,.547-.547A.547.547,0,0,1,225.642,50.189Z" transform="translate(945.311 644.27)" fill="#fff"/>
      </g>
      <path id="Path_1609" data-name="Path 1609" d="M169.642,51.284A1.642,1.642,0,1,0,168,49.642a1.642,1.642,0,0,0,1.642,1.642Zm0-2.189a.547.547,0,1,1-.547.547A.547.547,0,0,1,169.642,49.095Z" transform="translate(997.479 644.27)" fill="#fff"/>
      <path id="Path_1610" data-name="Path 1610" d="M113.642,51.284A1.642,1.642,0,1,0,112,49.642a1.642,1.642,0,0,0,1.642,1.642Zm0-2.189a.547.547,0,1,1-.547.547A.547.547,0,0,1,113.642,49.095Z" transform="translate(1049.648 644.27)" fill="#fff"/>
      <path id="Path_1611" data-name="Path 1611" d="M173.1,144a4.388,4.388,0,0,0-3.124,1.294l-3.753,3.753a4.389,4.389,0,0,1-1.172,1.172l-3.753,3.753a4.417,4.417,0,0,0,6.247,6.247l3.754-3.753a4.388,4.388,0,0,1,1.172-1.172l3.753-3.753A4.417,4.417,0,0,0,173.1,144Zm-6.089,11.922-2.016,2.016a1,1,0,0,1-1.415-1.415l2.015-2.015a4.408,4.408,0,0,0,1.416,1.415Zm-.241,3.525a3.323,3.323,0,1,1-4.7-4.7l2.869-2.869c-.006.1-.011.194-.011.292a4.429,4.429,0,0,0,.185,1.269l-2.308,2.308a2.1,2.1,0,0,0,2.963,2.963l4.019-4.019a2.1,2.1,0,0,0-.888-3.491l.807-.807a3.324,3.324,0,0,1,.816,5.3Zm1.447-7.232c.03,0,.059,0,.09,0a1,1,0,0,1,1,1c0,.03,0,.06,0,.09-.03,0-.059,0-.09,0a1,1,0,0,1-1-1c0-.03,0-.06,0-.09Zm2.293-2.622,2.015-2.015a1,1,0,1,1,1.415,1.415L171.925,151a4.385,4.385,0,0,0-1.418-1.413Zm4.94,1.175-2.869,2.869c.006-.1.011-.194.011-.292a4.462,4.462,0,0,0-.184-1.27l2.307-2.307a2.1,2.1,0,1,0-2.963-2.963l-4.019,4.019a2.1,2.1,0,0,0,.888,3.491l-.807.807a3.324,3.324,0,0,1-.816-5.3l3.753-3.753a3.323,3.323,0,0,1,4.7,4.7Z" transform="translate(1004.932 554.838)" fill="#fff"/>
    </g>
  </g>
</svg>
