<svg xmlns="http://www.w3.org/2000/svg" width="28" height="28" viewBox="0 0 28 28">
  <g id="edit_icon_bg" transform="translate(-649 -425)">
    <circle id="Ellipse_101" data-name="Ellipse 101" cx="14" cy="14" r="14" transform="translate(649 425)" fill="#fff" opacity="0.3"/>
  </g>
</svg>
