<svg xmlns="http://www.w3.org/2000/svg" xmlns:xlink="http://www.w3.org/1999/xlink" width="151.693" height="118.33" viewBox="0 0 151.693 118.33">
  <defs>
    <filter id="Path_513" x="0" y="0" width="141.222" height="82.081" filterUnits="userSpaceOnUse">
      <feOffset dy="10" input="SourceAlpha"/>
      <feGaussianBlur stdDeviation="3" result="blur"/>
      <feFlood flood-opacity="0.161"/>
      <feComposite operator="in" in2="blur"/>
      <feComposite in="SourceGraphic"/>
    </filter>
    <filter id="Path_518" x="10.471" y="36.249" width="141.222" height="82.081" filterUnits="userSpaceOnUse">
      <feOffset dy="10" input="SourceAlpha"/>
      <feGaussianBlur stdDeviation="3" result="blur-2"/>
      <feFlood flood-opacity="0.161"/>
      <feComposite operator="in" in2="blur-2"/>
      <feComposite in="SourceGraphic"/>
    </filter>
  </defs>
  <g id="graph_lines1" transform="translate(-681.528 -486.015)">
    <g transform="matrix(1, 0, 0, 1, 681.53, 486.01)" filter="url(#Path_513)">
      <path id="Path_513-2" data-name="Path 513" d="M4774.256,2023.891s17.054-11.553,21.822-18.888,13.2-14.487,29.525,2.384c7.7,7.885,25.49,3.668,37.41-22.006,5.685-11,9.535-20.355,28.24-18.338" transform="translate(-4761.78 -1964.28)" fill="none" stroke="#37b877" stroke-linecap="round" stroke-width="5"/>
    </g>
    <g transform="matrix(1, 0, 0, 1, 681.53, 486.01)" filter="url(#Path_518)">
      <path id="Path_518-2" data-name="Path 518" d="M4774.256,2023.891s17.054-11.553,21.822-18.888,13.2-14.487,29.525,2.384c7.7,7.885,25.49,3.668,37.41-22.006,5.685-11,9.535-20.355,28.24-18.338" transform="translate(-4751.31 -1928.03)" fill="none" stroke="#b5c4d7" stroke-linecap="round" stroke-width="5"/>
    </g>
  </g>
</svg>
