<svg id="_041---Folder" data-name="041---Folder" xmlns="http://www.w3.org/2000/svg" width="40.713" height="40.714" viewBox="0 0 40.713 40.714">
  <path id="Shape" d="M38.678,19.678H38V8.821a2.062,2.062,0,0,0-2.036-2.03V5.428a2.032,2.032,0,0,0-1.357-1.911V2.036A2.038,2.038,0,0,0,32.571,0H8.143A2.038,2.038,0,0,0,6.107,2.036V3.518A2.032,2.032,0,0,0,4.75,5.428V6.791a2.062,2.062,0,0,0-2.036,2.03V19.678H2.036A2.038,2.038,0,0,0,0,21.714V37.321a3.4,3.4,0,0,0,3.393,3.393H37.321a3.4,3.4,0,0,0,3.393-3.393V21.714A2.038,2.038,0,0,0,38.678,19.678Zm0,1.357a.679.679,0,0,1,.679.679v5.428H38V21.035Zm-31.214-19a.679.679,0,0,1,.679-.679H32.571a.679.679,0,0,1,.679.679V3.393H7.464ZM6.107,5.428a.679.679,0,0,1,.679-.679H33.928a.679.679,0,0,1,.679.679V6.786H6.107ZM4.071,8.821a.709.709,0,0,1,.735-.679h31.1a.709.709,0,0,1,.735.679V27.142h-7.78a1.354,1.354,0,0,0-1.129.6l-2.311,3.467H15.291L12.98,27.747a1.354,1.354,0,0,0-1.129-.6H4.071ZM2.036,21.035h.679v6.107H1.357V21.714A.679.679,0,0,1,2.036,21.035ZM39.356,37.321a2.038,2.038,0,0,1-2.036,2.036H3.393a2.038,2.038,0,0,1-2.036-2.036V28.5H11.851l2.311,3.467a1.354,1.354,0,0,0,1.129.6H25.422a1.354,1.354,0,0,0,1.129-.6L28.863,28.5H39.356Z" fill="#fff"/>
  <path id="Shape-2" data-name="Shape" d="M10.679,19.357H19.5A.679.679,0,0,0,19.5,18H10.679a.679.679,0,0,0,0,1.357Z" transform="translate(-3.214 -5.786)" fill="#fff"/>
  <path id="Shape-3" data-name="Shape" d="M10.679,24.357H26.964a.679.679,0,0,0,0-1.357H10.679a.679.679,0,0,0,0,1.357Z" transform="translate(-3.214 -7.393)" fill="#fff"/>
  <path id="Shape-4" data-name="Shape" d="M10.679,29.357H19.5A.679.679,0,0,0,19.5,28H10.679a.679.679,0,0,0,0,1.357Z" transform="translate(-3.214 -9)" fill="#fff"/>
</svg>
