<svg xmlns="http://www.w3.org/2000/svg" width="20.666" height="18.422" viewBox="0 0 20.666 18.422">
  <g id="home_1_" data-name="home (1)" transform="translate(0.001 -27.798)">
    <g id="Group_4" data-name="Group 4" transform="translate(2.278 36.062)">
      <g id="Group_3" data-name="Group 3" transform="translate(0 0)">
        <path id="Path_2" data-name="Path 2" d="M72.024,232.543a.537.537,0,0,0-.537.537v8.547h-4.3v-4.665a2.685,2.685,0,0,0-5.37,0v4.666h-4.3V233.08a.537.537,0,0,0-1.074,0v9.084a.537.537,0,0,0,.537.537h5.37a.537.537,0,0,0,.535-.5.4.4,0,0,0,0-.042v-5.2a1.611,1.611,0,0,1,3.222,0v5.2a.393.393,0,0,0,0,.041.537.537,0,0,0,.535.5h5.37a.537.537,0,0,0,.537-.537V233.08A.537.537,0,0,0,72.024,232.543Z" transform="translate(-56.452 -232.543)"/>
      </g>
    </g>
    <g id="Group_5" data-name="Group 5" transform="translate(-0.001 27.798)">
      <g id="Group_1" data-name="Group 1" transform="translate(0 0)">
        <path id="Path_1" data-name="Path 1" d="M20.446,35.074,10.65,27.9a.537.537,0,0,0-.634,0l-9.8,7.173a.537.537,0,0,0,.634.867L10.333,29l9.479,6.94a.537.537,0,0,0,.634-.866Z" transform="translate(0.001 -27.798)"/>
      </g>
    </g>
  </g>
</svg>
