<svg xmlns="http://www.w3.org/2000/svg" width="16.245" height="16.342" viewBox="0 0 16.245 16.342">
  <g id="analytics" transform="translate(-1.491 0)">
    <g id="Group_31" data-name="Group 31" transform="translate(5.348 8.526)">
      <g id="Group_30" data-name="Group 30" transform="translate(0)">
        <path id="Path_18" data-name="Path 18" d="M122.508,262.759h-1.817a.325.325,0,0,0-.324.324v2.985a.325.325,0,0,0,.324.324h1.817a.325.325,0,0,0,.324-.324v-2.985A.325.325,0,0,0,122.508,262.759Zm-.324,3.017h-1.168v-2.369h1.168Z" transform="translate(-120.367 -262.759)"/>
      </g>
    </g>
    <g id="Group_33" data-name="Group 33" transform="translate(1.617 7.877)">
      <g id="Group_32" data-name="Group 32">
        <path id="Path_19" data-name="Path 19" d="M7.508,242.759H5.691a.325.325,0,0,0-.324.324v3.666a.325.325,0,0,0,.324.324H7.508a.325.325,0,0,0,.324-.324v-3.666A.325.325,0,0,0,7.508,242.759Zm-.324,3.666H6.016v-3.017H7.184Z" transform="translate(-5.367 -242.759)"/>
      </g>
    </g>
    <g id="Group_35" data-name="Group 35" transform="translate(1.491 0)">
      <g id="Group_34" data-name="Group 34" transform="translate(0)">
        <path id="Path_20" data-name="Path 20" d="M15.062.427a1.354,1.354,0,0,0-2.294,1.282L11.3,2.751A1.355,1.355,0,0,0,9.06,4.165L7.7,5.307a1.355,1.355,0,0,0-2.391.324L4.186,5.174a1.36,1.36,0,1,0-.058.678l1.126.457a1.356,1.356,0,0,0,2.693-.227c0-.042,0-.088-.006-.13L9.423,4.707a1.356,1.356,0,0,0,2.21-1.4L13.086,2.28A1.354,1.354,0,0,0,15.062.427ZM2.85,6.112A.707.707,0,1,1,3.557,5.4.709.709,0,0,1,2.85,6.112Zm3.741.681A.707.707,0,1,1,7.3,6.086.709.709,0,0,1,6.591,6.793Zm3.744-2.385a.707.707,0,1,1,.707-.707A.709.709,0,0,1,10.335,4.408Zm3.741-2.349a.707.707,0,1,1,.707-.707A.709.709,0,0,1,14.076,2.059Z" transform="translate(-1.491 0)"/>
      </g>
    </g>
    <g id="Group_37" data-name="Group 37" transform="translate(9.112 3.789)">
      <g id="Group_36" data-name="Group 36">
        <path id="Path_21" data-name="Path 21" d="M242.564,121.155V117.09a.325.325,0,0,0-.318-.331h-1.827a.33.33,0,0,0-.321.331v3.683a4.213,4.213,0,0,0-1.265.389v-1.729a.34.34,0,0,0-.331-.337h-1.827a.323.323,0,0,0-.308.337v5.4a.362.362,0,0,0,.032.191,4.3,4.3,0,1,0,6.165-3.864Zm-1.817-3.747h1.168v3.5a4.191,4.191,0,0,0-1.168-.175Zm-3.731,2.336h1.168v1.81a4.053,4.053,0,0,0-1.168,1.3Zm3.689,8.919a3.644,3.644,0,1,1,3.644-3.644A3.645,3.645,0,0,1,240.705,128.663Z" transform="translate(-236.367 -116.759)"/>
      </g>
    </g>
    <g id="Group_39" data-name="Group 39" transform="translate(10.985 9.582)">
      <g id="Group_38" data-name="Group 38">
        <path id="Path_22" data-name="Path 22" d="M298.836,299.573l-.918-.921a2.109,2.109,0,1,0-.461.457l.921.921a.323.323,0,0,0,.457-.457Zm-2.612-.707a1.449,1.449,0,1,1,1.447-1.45A1.449,1.449,0,0,1,296.224,298.866Z" transform="translate(-294.12 -295.311)"/>
      </g>
    </g>
  </g>
</svg>
