<svg id="appointment" xmlns="http://www.w3.org/2000/svg" width="16" height="16" viewBox="0 0 16 16">
  <g id="Group_8" data-name="Group 8">
    <g id="Group_7" data-name="Group 7">
      <path id="Path_6" data-name="Path 6" d="M14.438,1.375h-1.49V.938a.938.938,0,1,0-1.875,0v.438H5.823V.938a.938.938,0,0,0-1.875,0v.449a.312.312,0,0,0-.083-.012H2.619A1.564,1.564,0,0,0,1.057,2.938V8.26a.313.313,0,1,0,.625,0V4.594H12.948a.313.313,0,0,0,0-.625H1.682V2.938A.939.939,0,0,1,2.619,2H3.865a.313.313,0,0,0,.083-.012v.4a.938.938,0,0,0,1.875,0V2h5.25v.391a.938.938,0,1,0,1.875,0V2h1.49a.939.939,0,0,1,.938.938V14.812a.563.563,0,0,1-1.125,0V14a.313.313,0,0,0-.312-.312H10.3a.313.313,0,1,0,0,.625h3.323v.5a1.18,1.18,0,0,0,.142.563H1.188a.563.563,0,0,1-.563-.563v-.5H7.62a.313.313,0,0,0,0-.625H4.5a2.563,2.563,0,1,0-3.339,0H.313A.313.313,0,0,0,0,14v.809A1.189,1.189,0,0,0,1.188,16H14.812A1.189,1.189,0,0,0,16,14.812V2.938A1.564,1.564,0,0,0,14.438,1.375ZM5.2,2.391a.313.313,0,0,1-.625,0V.938a.313.313,0,1,1,.625,0Zm7.125,0a.313.313,0,1,1-.625,0V.938a.313.313,0,1,1,.625,0ZM.89,11.75a1.938,1.938,0,1,1,1.938,1.938A1.94,1.94,0,0,1,.89,11.75Z"/>
    </g>
  </g>
  <g id="Group_10" data-name="Group 10" transform="translate(14.101 3.969)">
    <g id="Group_9" data-name="Group 9">
      <path id="Path_7" data-name="Path 7" d="M451.773,127.092a.312.312,0,1,0,.092.221A.315.315,0,0,0,451.773,127.092Z" transform="translate(-451.24 -127)"/>
    </g>
  </g>
  <g id="Group_12" data-name="Group 12" transform="translate(8.799 13.692)">
    <g id="Group_11" data-name="Group 11">
      <path id="Path_8" data-name="Path 8" d="M282.113,438.221a.313.313,0,1,0,.092.221A.315.315,0,0,0,282.113,438.221Z" transform="translate(-281.58 -438.13)"/>
    </g>
  </g>
  <g id="Group_14" data-name="Group 14" transform="translate(5.883 9.5)">
    <g id="Group_13" data-name="Group 13">
      <path id="Path_9" data-name="Path 9" d="M189.432,304a1.188,1.188,0,1,0,1.188,1.187A1.189,1.189,0,0,0,189.432,304Zm0,1.75a.563.563,0,1,1,.563-.563A.563.563,0,0,1,189.432,305.75Z" transform="translate(-188.245 -304)"/>
    </g>
  </g>
  <g id="Group_16" data-name="Group 16" transform="translate(8.799 9.5)">
    <g id="Group_15" data-name="Group 15">
      <path id="Path_10" data-name="Path 10" d="M282.766,304a1.188,1.188,0,1,0,1.187,1.187A1.189,1.189,0,0,0,282.766,304Zm0,1.75a.563.563,0,1,1,.563-.563A.563.563,0,0,1,282.766,305.75Z" transform="translate(-281.578 -304)"/>
    </g>
  </g>
  <g id="Group_18" data-name="Group 18" transform="translate(11.716 9.5)">
    <g id="Group_17" data-name="Group 17">
      <path id="Path_11" data-name="Path 11" d="M376.1,304a1.188,1.188,0,1,0,1.188,1.187A1.189,1.189,0,0,0,376.1,304Zm0,1.75a.563.563,0,1,1,.563-.563A.563.563,0,0,1,376.1,305.75Z" transform="translate(-374.912 -304)"/>
    </g>
  </g>
  <g id="Group_20" data-name="Group 20" transform="translate(2.966 6.25)">
    <g id="Group_19" data-name="Group 19">
      <path id="Path_12" data-name="Path 12" d="M96.1,200a1.188,1.188,0,1,0,1.188,1.188A1.189,1.189,0,0,0,96.1,200Zm0,1.75a.563.563,0,1,1,.563-.562A.563.563,0,0,1,96.1,201.75Z" transform="translate(-94.912 -200)"/>
    </g>
  </g>
  <g id="Group_22" data-name="Group 22" transform="translate(8.799 6.25)">
    <g id="Group_21" data-name="Group 21">
      <path id="Path_13" data-name="Path 13" d="M282.766,200a1.188,1.188,0,1,0,1.187,1.188A1.189,1.189,0,0,0,282.766,200Zm0,1.75a.563.563,0,1,1,.563-.562A.563.563,0,0,1,282.766,201.75Z" transform="translate(-281.578 -200)"/>
    </g>
  </g>
  <g id="Group_24" data-name="Group 24" transform="translate(11.716 6.25)">
    <g id="Group_23" data-name="Group 23">
      <path id="Path_14" data-name="Path 14" d="M376.1,200a1.188,1.188,0,1,0,1.188,1.188A1.189,1.189,0,0,0,376.1,200Zm0,1.75a.563.563,0,1,1,.563-.562A.563.563,0,0,1,376.1,201.75Z" transform="translate(-374.912 -200)"/>
    </g>
  </g>
  <g id="Group_26" data-name="Group 26" transform="translate(5.883 6.25)">
    <g id="Group_25" data-name="Group 25">
      <path id="Path_15" data-name="Path 15" d="M189.432,200a1.188,1.188,0,1,0,1.188,1.188A1.189,1.189,0,0,0,189.432,200Zm0,1.75a.563.563,0,1,1,.563-.562A.563.563,0,0,1,189.432,201.75Z" transform="translate(-188.245 -200)"/>
    </g>
  </g>
  <g id="Group_28" data-name="Group 28" transform="translate(1.6 10.897)">
    <g id="Group_27" data-name="Group 27">
      <path id="Path_16" data-name="Path 16" d="M53.535,348.792a.313.313,0,0,0-.442,0l-1.018,1.018-.348-.348a.313.313,0,1,0-.442.442l.569.569a.312.312,0,0,0,.442,0l1.239-1.239A.313.313,0,0,0,53.535,348.792Z" transform="translate(-51.194 -348.7)"/>
    </g>
  </g>
</svg>
