<svg xmlns="http://www.w3.org/2000/svg" width="21.006" height="18.45" viewBox="0 0 21.006 18.45">
  <path id="Icon_feather-heart" data-name="Icon feather-heart" d="M20.787,6.04a5.264,5.264,0,0,0-7.446,0L12.326,7.054,11.311,6.04a5.265,5.265,0,1,0-7.446,7.446L4.88,14.5l7.446,7.446L19.772,14.5l1.015-1.015a5.264,5.264,0,0,0,0-7.446Z" transform="translate(-1.823 -3.997)" fill="none" stroke="#000" stroke-linecap="round" stroke-linejoin="round" stroke-width="1"/>
</svg>
