<svg xmlns="http://www.w3.org/2000/svg" width="18.633" height="30.703" viewBox="0 0 18.633 30.703">
  <path id="Icon_awesome-chevron-right" data-name="Icon awesome-chevron-right" d="M18.139,14.158,4.474.494a1.687,1.687,0,0,0-2.386,0L.494,2.088a1.687,1.687,0,0,0,0,2.384l10.829,10.88L.491,26.232a1.687,1.687,0,0,0,0,2.384l1.594,1.594a1.687,1.687,0,0,0,2.386,0L18.139,16.545A1.687,1.687,0,0,0,18.139,14.158Z" fill="#cec8c8"/>
</svg>
