<svg xmlns="http://www.w3.org/2000/svg" width="17.759" height="15.745" viewBox="0 0 17.759 15.745">
  <path id="Icon_feather-heart" data-name="Icon feather-heart" d="M16.867,5.712a4.146,4.146,0,0,0-5.865,0l-.8.8-.8-.8a4.147,4.147,0,1,0-5.865,5.865l.8.8L10.2,18.242l5.865-5.865.8-.8a4.146,4.146,0,0,0,0-5.865Z" transform="translate(-1.323 -3.497)" fill="#ff0000" stroke="#ff0000" stroke-linecap="round" stroke-linejoin="round" stroke-width="2"/>
</svg>
