<svg xmlns="http://www.w3.org/2000/svg" width="14.858" height="14.858" viewBox="0 0 14.858 14.858">
  <g id="icn_download" transform="translate(-3.5 -3.5)">
    <path id="Path_148" data-name="Path 148" d="M17.358,22.5v2.857a1.429,1.429,0,0,1-1.429,1.429h-10A1.429,1.429,0,0,1,4.5,25.357V22.5" transform="translate(0 -9.428)" fill="none" stroke="#32ca75" stroke-linecap="round" stroke-linejoin="round" stroke-width="2"/>
    <path id="Path_149" data-name="Path 149" d="M10.5,15l3.572,3.572L17.644,15" transform="translate(-3.143 -5.5)" fill="none" stroke="#32ca75" stroke-linecap="round" stroke-linejoin="round" stroke-width="2"/>
    <path id="Path_150" data-name="Path 150" d="M18,13.072V4.5" transform="translate(-7.071)" fill="none" stroke="#32ca75" stroke-linecap="round" stroke-linejoin="round" stroke-width="2"/>
  </g>
</svg>
