<svg xmlns="http://www.w3.org/2000/svg" width="54" height="54" viewBox="0 0 54 54">
  <g id="Group_168" data-name="Group 168" transform="translate(0.332)">
    <g id="Group_169" data-name="Group 169">
      <circle id="Ellipse_92" data-name="Ellipse 92" cx="27" cy="27" r="27" transform="translate(-0.332)" fill="#0db5ff" opacity="0.21"/>
      <path id="Icon_awesome-wave-square" data-name="Icon awesome-wave-square" d="M25.871,14.859H17.61c-1.081,0-1.957-.535-1.957-1.194V2.123H10.435V7.3c0,.659-.876,1.194-1.957,1.194H.87c-.48,0-.87-.238-.87-.531V6.9c0-.293.389-.531.87-.531H6.957V1.194C6.957.535,7.833,0,8.913,0h8.261c1.081,0,1.957.535,1.957,1.194V12.736h5.218V7.562c0-.659.876-1.194,1.957-1.194h7.609c.48,0,.87.238.87.531V7.96c0,.293-.389.531-.87.531H27.827v5.174C27.827,14.324,26.951,14.859,25.871,14.859Z" transform="translate(8.632 20.078) rotate(-3)" fill="#0db5ff"/>
    </g>
  </g>
</svg>
