<svg xmlns="http://www.w3.org/2000/svg" width="33.015" height="32.985" viewBox="0 0 33.015 32.985">
  <g id="Group_537" data-name="Group 537" transform="translate(-660.403 -1084.5)">
    <path id="Path_110" data-name="Path 110" d="M15,19.5a7.5,7.5,0,0,0,11.31.81l4.5-4.5A7.5,7.5,0,1,0,20.2,5.2L17.625,7.77" transform="translate(658.91 1082.992)" fill="none" stroke="#32ca75" stroke-linecap="round" stroke-linejoin="round" stroke-width="3"/>
    <path id="Path_111" data-name="Path 111" d="M21,16.5a7.5,7.5,0,0,0-11.31-.81l-4.5,4.5A7.5,7.5,0,1,0,15.8,30.8L18.36,28.23" transform="translate(658.91 1082.992)" fill="none" stroke="#32ca75" stroke-linecap="round" stroke-linejoin="round" stroke-width="3"/>
  </g>
</svg>
