<svg xmlns="http://www.w3.org/2000/svg" width="15.01" height="15.009" viewBox="0 0 15.01 15.009">
  <g id="Icon_feather-search" data-name="Icon feather-search" transform="translate(-3.5 -3.5)">
    <path id="Path_170" data-name="Path 170" d="M15.7,10.1a5.6,5.6,0,1,1-5.6-5.6A5.6,5.6,0,0,1,15.7,10.1Z" fill="none" stroke="#9b9b9b" stroke-linecap="round" stroke-linejoin="round" stroke-width="2"/>
    <path id="Path_171" data-name="Path 171" d="M28.019,28.019l-3.044-3.044" transform="translate(-10.924 -10.924)" fill="none" stroke="#9b9b9b" stroke-linecap="round" stroke-linejoin="round" stroke-width="2"/>
  </g>
</svg>
