<svg xmlns="http://www.w3.org/2000/svg" width="17.76" height="17.701" viewBox="0 0 17.76 17.701">
  <g id="logout" transform="translate(0 -0.85)">
    <g id="Group_92" data-name="Group 92" transform="translate(0 0.85)">
      <g id="Group_91" data-name="Group 91" transform="translate(0 0)">
        <path id="Path_55" data-name="Path 55" d="M8.85,17.076H2.213a.738.738,0,0,1-.738-.738V3.063a.738.738,0,0,1,.738-.738H8.85A.738.738,0,0,0,8.85.85H2.213A2.215,2.215,0,0,0,0,3.063V16.338a2.215,2.215,0,0,0,2.213,2.213H8.85a.738.738,0,1,0,0-1.475Z" transform="translate(0 -0.85)"/>
      </g>
    </g>
    <g id="Group_94" data-name="Group 94" transform="translate(5.9 4.538)">
      <g id="Group_93" data-name="Group 93">
        <path id="Path_56" data-name="Path 56" d="M181.74,111.8l-4.484-4.425a.737.737,0,1,0-1.035,1.05l3.2,3.163h-8.587a.738.738,0,0,0,0,1.475h8.587l-3.2,3.163a.737.737,0,1,0,1.035,1.05l4.484-4.425a.737.737,0,0,0,0-1.05Z" transform="translate(-170.1 -107.165)"/>
      </g>
    </g>
  </g>
</svg>
