<svg xmlns="http://www.w3.org/2000/svg" width="29.139" height="27.905" viewBox="0 0 29.139 27.905">
  <g id="Icon_feather-shopping-cart" data-name="Icon feather-shopping-cart" transform="translate(-0.5 -0.5)">
    <path id="Path_102" data-name="Path 102" d="M14.467,31.234A1.234,1.234,0,1,1,13.234,30,1.234,1.234,0,0,1,14.467,31.234Z" transform="translate(-1.865 -5.062)" fill="none" stroke="#000" stroke-linecap="round" stroke-linejoin="round" stroke-width="2"/>
    <path id="Path_103" data-name="Path 103" d="M30.967,31.234A1.234,1.234,0,1,1,29.734,30,1.234,1.234,0,0,1,30.967,31.234Z" transform="translate(-4.795 -5.062)" fill="none" stroke="#000" stroke-linecap="round" stroke-linejoin="round" stroke-width="2"/>
    <path id="Path_104" data-name="Path 104" d="M1.5,1.5H6.434L9.74,18.018A2.467,2.467,0,0,0,12.208,20H24.2a2.467,2.467,0,0,0,2.467-1.986l1.974-10.35H7.668" fill="none" stroke="#000" stroke-linecap="round" stroke-linejoin="round" stroke-width="2"/>
  </g>
</svg>
