<?xml version="1.0" encoding="utf-8"?>
<!-- Generator: Adobe Illustrator 24.3.0, SVG Export Plug-In . SVG Version: 6.00 Build 0)  -->
<svg version="1.1" id="Layer_1" xmlns="http://www.w3.org/2000/svg" xmlns:xlink="http://www.w3.org/1999/xlink" x="0px" y="0px"
	 viewBox="0 0 16.2 16.3" style="enable-background:new 0 0 16.2 16.3;" xml:space="preserve">
<style type="text/css">
	.st0{fill:#FFFFFF;}
</style>
<g id="analytics" transform="translate(-1.491 0)">
	<g id="Group_31" transform="translate(5.348 8.526)">
		<g id="Group_30" transform="translate(0)">
			<path id="Path_18" class="st0" d="M2.1,0H0.3C0.1,0,0,0.1,0,0.3v3c0,0.2,0.1,0.3,0.3,0.3h1.8c0.2,0,0.3-0.1,0.3-0.3v-3
				C2.5,0.1,2.3,0,2.1,0z M1.8,3H0.6V0.6h1.2V3z"/>
		</g>
	</g>
	<g id="Group_33" transform="translate(1.617 7.877)">
		<g id="Group_32">
			<path id="Path_19" class="st0" d="M2.1,0H0.3C0.1,0,0,0.1,0,0.3V4c0,0.2,0.1,0.3,0.3,0.3h1.8c0.2,0,0.3-0.1,0.3-0.3V0.3
				C2.5,0.1,2.3,0,2.1,0z M1.8,3.7H0.6v-3h1.2V3.7z"/>
		</g>
	</g>
	<g id="Group_35" transform="translate(1.491 0)">
		<g id="Group_34" transform="translate(0)">
			<path id="Path_20" class="st0" d="M13.6,0.4c-0.5-0.5-1.4-0.6-1.9-0.1c-0.4,0.3-0.5,0.9-0.4,1.3l-1.5,1c-0.5-0.5-1.4-0.5-1.9,0
				C7.5,3.1,7.4,3.7,7.6,4.2L6.2,5.3C5.8,4.7,4.9,4.5,4.3,5C4.1,5.1,3.9,5.4,3.8,5.6L2.7,5.2C2.6,4.4,1.9,3.9,1.1,4.1
				C0.4,4.2-0.1,4.9,0,5.6s0.8,1.2,1.6,1.1c0.5-0.1,0.9-0.4,1.1-0.9l1.1,0.5C3.9,7,4.6,7.5,5.3,7.4C6,7.3,6.5,6.7,6.5,6.1
				c0,0,0-0.1,0-0.1l1.5-1.2c0.6,0.5,1.4,0.5,1.9-0.1c0.3-0.4,0.4-0.9,0.3-1.3l1.5-1c0.5,0.5,1.4,0.6,1.9,0.1S14.1,1,13.6,0.4z
				 M1.4,6.1C1,6.1,0.7,5.8,0.7,5.4C0.7,5,1,4.7,1.4,4.7c0.4,0,0.7,0.3,0.7,0.7C2.1,5.8,1.8,6.1,1.4,6.1C1.4,6.1,1.4,6.1,1.4,6.1z
				 M5.1,6.8c-0.4,0-0.7-0.3-0.7-0.7s0.3-0.7,0.7-0.7c0.4,0,0.7,0.3,0.7,0.7C5.8,6.5,5.5,6.8,5.1,6.8z M8.8,4.4
				c-0.4,0-0.7-0.3-0.7-0.7C8.1,3.3,8.5,3,8.8,3c0.4,0,0.7,0.3,0.7,0.7v0C9.5,4.1,9.2,4.4,8.8,4.4z M12.6,2.1
				c-0.4,0-0.7-0.3-0.7-0.7c0-0.4,0.3-0.7,0.7-0.7c0.4,0,0.7,0.3,0.7,0.7c0,0,0,0,0,0C13.3,1.7,13,2.1,12.6,2.1z"/>
		</g>
	</g>
	<g id="Group_37" transform="translate(9.112 3.789)">
		<g id="Group_36">
			<path id="Path_21" class="st0" d="M6.2,4.4V0.3C6.2,0.2,6.1,0,5.9,0H4.1C3.9,0,3.7,0.2,3.7,0.3V4C3.3,4.1,2.9,4.2,2.5,4.4V2.7
				c0-0.2-0.1-0.3-0.3-0.3H0.3C0.1,2.3,0,2.5,0,2.7v5.4c0,0.1,0,0.1,0,0.2c0,2.4,1.9,4.3,4.3,4.3s4.3-1.9,4.3-4.3
				C8.6,6.6,7.7,5.1,6.2,4.4L6.2,4.4z M4.4,0.6h1.2v3.5C5.2,4,4.8,4,4.4,4V0.6z M0.6,3h1.2v1.8C1.3,5.1,0.9,5.6,0.6,6.1V3z
				 M4.3,11.9c-2,0-3.6-1.6-3.6-3.6s1.6-3.6,3.6-3.6S8,6.2,8,8.3c0,0,0,0,0,0C8,10.3,6.4,11.9,4.3,11.9L4.3,11.9z"/>
		</g>
	</g>
	<g id="Group_39" transform="translate(10.985 9.582)">
		<g id="Group_38">
			<path id="Path_22" class="st0" d="M4.7,4.3L3.8,3.3c0.7-0.9,0.5-2.3-0.4-2.9C2.4-0.3,1.1-0.1,0.4,0.8c-0.7,0.9-0.5,2.3,0.4,2.9
				c0.7,0.5,1.7,0.5,2.5,0l0.9,0.9c0.1,0.1,0.3,0.1,0.5,0S4.8,4.4,4.7,4.3L4.7,4.3L4.7,4.3z M2.1,3.6c-0.8,0-1.4-0.6-1.5-1.4
				c0-0.8,0.6-1.4,1.4-1.5c0.8,0,1.4,0.6,1.5,1.4c0,0,0,0,0,0C3.6,2.9,2.9,3.6,2.1,3.6z"/>
		</g>
	</g>
</g>
</svg>
