<?xml version="1.0" encoding="utf-8"?>
<!-- Generator: Adobe Illustrator 24.3.0, SVG Export Plug-In . SVG Version: 6.00 Build 0)  -->
<svg version="1.1" id="Layer_1" xmlns="http://www.w3.org/2000/svg" xmlns:xlink="http://www.w3.org/1999/xlink" x="0px" y="0px"
	 viewBox="0 0 13.4 16.4" style="enable-background:new 0 0 13.4 16.4;" xml:space="preserve">
<style type="text/css">
	.st0{fill:none;stroke:#FFFFFF;stroke-linecap:round;stroke-linejoin:round;}
</style>
<g id="Icon_feather-file-text" transform="translate(-5.5 -2.5)">
	<path id="Path_159" class="st0" d="M13.7,3H7.5C6.7,3,6,3.7,6,4.5l0,0v12.4c0,0.9,0.7,1.5,1.5,1.5h0h9.3c0.9,0,1.5-0.7,1.5-1.5
		c0,0,0,0,0,0V7.6L13.7,3z"/>
	<path id="Path_160" class="st0" d="M13.7,3v4.6h4.6"/>
	<path id="Path_161" class="st0" d="M15.3,11.5H9.1"/>
	<path id="Path_162" class="st0" d="M15.3,14.6H9.1"/>
	<path id="Path_163" class="st0" d="M10.6,8.4H9.1"/>
</g>
</svg>
