<svg xmlns="http://www.w3.org/2000/svg" width="15" height="15.001" viewBox="0 0 15 15.001">
  <path id="Icon_open-browser" data-name="Icon open-browser" d="M.593-.006A.875.875,0,0,0,0,.869V13.117a.875.875,0,0,0,.875.875H13.121A.875.875,0,0,0,14,13.117V.869a.875.875,0,0,0-.875-.875H.873a.875.875,0,0,0-.157,0,.875.875,0,0,0-.1,0Zm2.03,1.75a.875.875,0,1,1-.875.875A.866.866,0,0,1,2.623,1.744Zm3.5,0h5.249a.875.875,0,1,1,0,1.75H6.122a.875.875,0,0,1,0-1.75Zm-4.374,3.5h10.5v7H1.748Z" transform="translate(0.504 0.509)" fill="none" stroke="#000" stroke-width="1"/>
</svg>
