<svg id="blogger" xmlns="http://www.w3.org/2000/svg" width="22.477" height="18.965" viewBox="0 0 22.477 18.965">
  <path id="Path_826" data-name="Path 826" d="M179.933.7h-3.512a.351.351,0,0,1,0-.7h3.512a.351.351,0,1,1,0,.7Zm0,0" transform="translate(-168.34)" fill="#fff"/>
  <path id="Path_827" data-name="Path 827" d="M282.88,315.161a.351.351,0,0,1-.351-.351,2.109,2.109,0,0,0-2.107-2.107.351.351,0,0,1,0-.7,2.813,2.813,0,0,1,2.81,2.81A.351.351,0,0,1,282.88,315.161Zm0,0" transform="translate(-267.775 -298.303)" fill="#fff"/>
  <path id="Path_828" data-name="Path 828" d="M242.177,312.7h-1.756a.351.351,0,0,1,0-.7h1.756a.351.351,0,0,1,0,.7Zm0,0" transform="translate(-229.531 -298.303)" fill="#fff"/>
  <path id="Path_829" data-name="Path 829" d="M336.421,371.919a.351.351,0,0,1-.351-.351v-2.056a.351.351,0,1,1,.7,0v2.056A.351.351,0,0,1,336.421,371.919Zm0,0" transform="translate(-321.316 -352.954)" fill="#fff"/>
  <path id="Path_830" data-name="Path 830" d="M48.422,315.161a.351.351,0,0,1-.351-.351A2.813,2.813,0,0,1,50.88,312a.351.351,0,0,1,0,.7,2.109,2.109,0,0,0-2.107,2.107A.351.351,0,0,1,48.422,315.161Zm0,0" transform="translate(-45.96 -298.303)" fill="#fff"/>
  <path id="Path_831" data-name="Path 831" d="M106.177,312.7h-1.756a.351.351,0,0,1,0-.7h1.756a.351.351,0,0,1,0,.7Zm0,0" transform="translate(-99.501 -298.303)" fill="#fff"/>
  <path id="Path_832" data-name="Path 832" d="M48.422,371.919a.351.351,0,0,1-.351-.351v-2.056a.351.351,0,0,1,.7,0v2.056A.351.351,0,0,1,48.422,371.919Zm0,0" transform="translate(-45.96 -352.954)" fill="#fff"/>
  <path id="Path_833" data-name="Path 833" d="M144.421,279.444a.351.351,0,0,1-.351-.351v-1.527a.351.351,0,0,1,.7,0v1.527A.351.351,0,0,1,144.421,279.444Zm0,0" transform="translate(-137.745 -265.045)" fill="#fff"/>
  <path id="Path_834" data-name="Path 834" d="M240.421,279.444a.351.351,0,0,1-.351-.351v-1.527a.351.351,0,0,1,.7,0v1.527A.351.351,0,0,1,240.421,279.444Zm0,0" transform="translate(-229.531 -265.045)" fill="#fff"/>
  <path id="Path_835" data-name="Path 835" d="M85.338,181.619a5.274,5.274,0,0,1-5.268-5.268.351.351,0,1,1,.7,0,4.566,4.566,0,1,0,9.131,0,.351.351,0,1,1,.7,0A5.274,5.274,0,0,1,85.338,181.619Zm0,0" transform="translate(-76.555 -168.273)" fill="#fff"/>
  <path id="Path_836" data-name="Path 836" d="M80.422,100.206a.351.351,0,0,1-.351-.351v-3.5a.351.351,0,0,1,.7,0v3.5A.351.351,0,0,1,80.422,100.206Zm0,0" transform="translate(-76.555 -91.785)" fill="#fff"/>
  <path id="Path_837" data-name="Path 837" d="M304.421,92.574a.351.351,0,0,1-.351-.351V88.359a.351.351,0,1,1,.7,0v3.863A.351.351,0,0,1,304.421,92.574Zm0,0" transform="translate(-290.721 -84.144)" fill="#fff"/>
  <path id="Path_838" data-name="Path 838" d="M258.529,42.81a.351.351,0,0,1-.351-.351,1.758,1.758,0,0,0-1.756-1.756.351.351,0,1,1,0-.7,2.461,2.461,0,0,1,2.458,2.458A.351.351,0,0,1,258.529,42.81Zm0,0" transform="translate(-244.828 -38.244)" fill="#fff"/>
  <path id="Path_839" data-name="Path 839" d="M256.421,2.458a.351.351,0,0,1-.351-.351V.351a.351.351,0,1,1,.7,0V2.107A.351.351,0,0,1,256.421,2.458Zm0,0" transform="translate(-244.828)" fill="#fff"/>
  <path id="Path_840" data-name="Path 840" d="M80.422,4.917a.351.351,0,0,1-.351-.351A4.571,4.571,0,0,1,84.636,0a.351.351,0,0,1,0,.7,3.868,3.868,0,0,0-3.863,3.863A.351.351,0,0,1,80.422,4.917Zm0,0" transform="translate(-76.555)" fill="#fff"/>
  <path id="Path_841" data-name="Path 841" d="M273.826,106.1a.351.351,0,0,1-.248-.1l-1.4-1.4a.351.351,0,0,1,.5-.5l1.4,1.4a.351.351,0,0,1-.248.6Zm0,0" transform="translate(-260.126 -99.432)" fill="#fff"/>
  <path id="Path_842" data-name="Path 842" d="M115.939,105.4a10.053,10.053,0,0,1-3.653-.732.351.351,0,0,1,.281-.644,8.781,8.781,0,0,0,6.743,0,.351.351,0,1,1,.281.643,10.053,10.053,0,0,1-3.653.732Zm0,0" transform="translate(-107.156 -99.427)" fill="#fff"/>
  <path id="Path_843" data-name="Path 843" d="M80.422,106.105a.351.351,0,0,1-.248-.6l1.4-1.4a.351.351,0,0,1,.5.5l-1.4,1.4A.348.348,0,0,1,80.422,106.105Zm0,0" transform="translate(-76.556 -99.437)" fill="#fff"/>
  <path id="Path_844" data-name="Path 844" d="M145.473,313.4a.353.353,0,0,1-.194-.059l-1.054-.7a.351.351,0,1,1,.39-.584l1.054.7a.351.351,0,0,1-.2.643Zm0,0" transform="translate(-137.743 -298.298)" fill="#fff"/>
  <path id="Path_845" data-name="Path 845" d="M168.425,321.041a.351.351,0,0,1-.111-.685l1.054-.351a.351.351,0,0,1,.222.666l-1.054.351A.359.359,0,0,1,168.425,321.041Zm0,0" transform="translate(-160.696 -305.939)" fill="#fff"/>
  <path id="Path_846" data-name="Path 846" d="M216.419,313.4a.351.351,0,0,1-.2-.643l1.054-.7a.351.351,0,1,1,.39.584l-1.054.7A.353.353,0,0,1,216.419,313.4Zm0,0" transform="translate(-206.582 -298.298)" fill="#fff"/>
  <path id="Path_847" data-name="Path 847" d="M193.48,321.042a.353.353,0,0,1-.111-.018l-1.054-.351a.351.351,0,0,1,.222-.666l1.054.351a.351.351,0,0,1-.111.685Zm0,0" transform="translate(-183.643 -305.94)" fill="#fff"/>
  <path id="Path_848" data-name="Path 848" d="M192.627,360.7a.351.351,0,0,1,0-.7h0a.351.351,0,1,1,0,.7Zm0,0" transform="translate(-183.833 -344.196)" fill="#fff"/>
  <path id="Path_849" data-name="Path 849" d="M192.627,392.7a.351.351,0,0,1,0-.7h0a.351.351,0,1,1,0,.7Zm0,0" transform="translate(-183.833 -374.791)" fill="#fff"/>
  <path id="Path_850" data-name="Path 850" d="M17.354,156.644H.5a.351.351,0,0,1-.351-.351V144.351A.351.351,0,0,1,.5,144H4.005a.351.351,0,0,1,0,.7H.847v11.239H17.354a.351.351,0,0,1,0,.7Zm0,0" transform="translate(-0.139 -137.678)" fill="#fff"/>
  <path id="Path_851" data-name="Path 851" d="M.351,113.4A.351.351,0,0,1,0,113.054,1.055,1.055,0,0,1,1.054,112a.351.351,0,1,1,0,.7.352.352,0,0,0-.351.351A.351.351,0,0,1,.351,113.4Zm0,0" transform="translate(0 -107.083)" fill="#fff"/>
  <path id="Path_852" data-name="Path 852" d="M.351,129.4A.351.351,0,0,1,0,129.054v-.7a.351.351,0,1,1,.7,0v.7A.351.351,0,0,1,.351,129.4Zm0,0" transform="translate(0 -122.381)" fill="#fff"/>
  <path id="Path_853" data-name="Path 853" d="M19.265,112.7H16.457a.351.351,0,1,1,0-.7h2.808a.351.351,0,0,1,0,.7Zm0,0" transform="translate(-15.398 -107.083)" fill="#fff"/>
  <path id="Path_854" data-name="Path 854" d="M305.771,112.7h-1.4a.351.351,0,1,1,0-.7h1.4a.351.351,0,1,1,0,.7Zm0,0" transform="translate(-290.669 -107.083)" fill="#fff"/>
  <path id="Path_855" data-name="Path 855" d="M305.771,144.7h-1.4a.351.351,0,1,1,0-.7h1.4a.351.351,0,1,1,0,.7Zm0,0" transform="translate(-290.669 -137.678)" fill="#fff"/>
  <path id="Path_856" data-name="Path 856" d="M336.351,9.483A.351.351,0,0,1,336,9.132V.351A.351.351,0,0,1,336.351,0h7.024a.351.351,0,0,1,.351.351V8.078a.351.351,0,0,1-.351.351h0l-4.833-.008-2.032,1.024a.354.354,0,0,1-.158.038ZM336.7.7V8.561l1.6-.805a.244.244,0,0,1,.159-.038l4.565.008V.7Zm0,0" transform="translate(-321.249)" fill="#fff"/>
  <path id="Path_857" data-name="Path 857" d="M384.358,187.064a.351.351,0,0,1-.351-.351L384,176.168a.351.351,0,0,1,.351-.351h0a.351.351,0,0,1,.351.351l.006,10.544a.351.351,0,0,1-.351.351Zm0,0" transform="translate(-367.142 -168.098)" fill="#fff"/>
  <path id="Path_858" data-name="Path 858" d="M410.458,72.7h-2.107a.351.351,0,0,1,0-.7h2.107a.351.351,0,0,1,0,.7Zm0,0" transform="translate(-390.088 -68.839)" fill="#fff"/>
  <path id="Path_859" data-name="Path 859" d="M379.863,40.7h-3.512a.351.351,0,0,1,0-.7h3.512a.351.351,0,0,1,0,.7Zm0,0" transform="translate(-359.493 -38.244)" fill="#fff"/>
  <path id="Path_860" data-name="Path 860" d="M387.512,104.7h-3.161a.351.351,0,0,1,0-.7h3.161a.351.351,0,0,1,0,.7Zm0,0" transform="translate(-367.142 -99.434)" fill="#fff"/>
  <path id="Path_861" data-name="Path 861" d="M418.107,136.71h-1.756a.351.351,0,0,1,0-.7h1.756a.351.351,0,1,1,0,.7Zm0,0" transform="translate(-397.737 -130.037)" fill="#fff"/>
</svg>
