<svg id="invite-a-friend-white" xmlns="http://www.w3.org/2000/svg" width="26.973" height="26.973" viewBox="0 0 26.973 26.973">
  <g id="Group_4375" data-name="Group 4375" transform="translate(0 0)">
    <g id="Group_4360" data-name="Group 4360" transform="translate(10.439 21.144)">
      <path id="Path_455" data-name="Path 455" d="M203.761,402.411h-5.084a.527.527,0,1,1,0-1.054h5.084a.527.527,0,1,1,0,1.054Z" transform="translate(-198.15 -401.357)" fill="#fff"/>
    </g>
    <g id="Group_4361" data-name="Group 4361" transform="translate(8.865 23.24)">
      <path id="Path_456" data-name="Path 456" d="M177.036,442.2H168.8a.527.527,0,0,1,0-1.054h8.232a.527.527,0,0,1,0,1.054Z" transform="translate(-168.278 -441.145)" fill="#fff"/>
    </g>
    <g id="Group_4364" data-name="Group 4364" transform="translate(12.981 2.002)">
      <g id="Group_4362" data-name="Group 4362">
        <path id="Path_457" data-name="Path 457" d="M246.932,39.585a.527.527,0,0,1-.527-.527v-.531a.527.527,0,1,1,1.054,0v.531A.527.527,0,0,1,246.932,39.585Z" transform="translate(-246.405 -38)" fill="#fff"/>
      </g>
      <g id="Group_4363" data-name="Group 4363" transform="translate(0 12.635)">
        <path id="Path_458" data-name="Path 458" d="M246.932,279.422a.527.527,0,0,1-.527-.527v-.531a.527.527,0,0,1,1.054,0v.531A.527.527,0,0,1,246.932,279.422Z" transform="translate(-246.405 -277.837)" fill="#fff"/>
      </g>
    </g>
    <g id="Group_4367" data-name="Group 4367" transform="translate(7.809 3.413)">
      <g id="Group_4365" data-name="Group 4365" transform="translate(9.452)">
        <path id="Path_459" data-name="Path 459" d="M328.165,66.727a.527.527,0,0,1-.373-.9l.893-.893a.527.527,0,0,1,.745.745l-.893.893A.525.525,0,0,1,328.165,66.727Z" transform="translate(-327.638 -64.781)" fill="#fff"/>
      </g>
      <g id="Group_4366" data-name="Group 4366" transform="translate(0 9.452)">
        <path id="Path_460" data-name="Path 460" d="M148.755,246.137a.527.527,0,0,1-.373-.9l.893-.893a.527.527,0,1,1,.745.745l-.893.893A.525.525,0,0,1,148.755,246.137Z" transform="translate(-148.228 -244.19)" fill="#fff"/>
      </g>
    </g>
    <g id="Group_4370" data-name="Group 4370" transform="translate(6.398 8.585)">
      <g id="Group_4368" data-name="Group 4368" transform="translate(12.635)">
        <path id="Path_461" data-name="Path 461" d="M362.343,164.011h-.531a.527.527,0,0,1,0-1.054h.531a.527.527,0,1,1,0,1.054Z" transform="translate(-361.285 -162.957)" fill="#fff"/>
      </g>
      <g id="Group_4369" data-name="Group 4369">
        <path id="Path_462" data-name="Path 462" d="M122.506,164.011h-.531a.527.527,0,1,1,0-1.054h.531a.527.527,0,1,1,0,1.054Z" transform="translate(-121.448 -162.957)" fill="#fff"/>
      </g>
    </g>
    <g id="Group_4373" data-name="Group 4373" transform="translate(7.809 3.413)">
      <g id="Group_4371" data-name="Group 4371">
        <path id="Path_463" data-name="Path 463" d="M149.646,66.726a.525.525,0,0,1-.372-.154l-.893-.893a.527.527,0,0,1,.745-.745l.893.893a.527.527,0,0,1-.373.9Z" transform="translate(-148.227 -64.78)" fill="#fff"/>
      </g>
      <g id="Group_4372" data-name="Group 4372" transform="translate(9.452 9.452)">
        <path id="Path_464" data-name="Path 464" d="M329.056,246.136a.525.525,0,0,1-.372-.154l-.893-.893a.527.527,0,0,1,.745-.745l.893.893a.527.527,0,0,1-.372.9Z" transform="translate(-327.637 -244.19)" fill="#fff"/>
      </g>
    </g>
    <path id="Path_465" data-name="Path 465" d="M182.334,107.5a.882.882,0,0,1-.876-.988l.208-1.707-1.173-1.26a.882.882,0,0,1,.476-1.466l1.691-.33.837-1.5a.882.882,0,0,1,1.542,0l.837,1.5,1.691.33a.882.882,0,0,1,.476,1.466l-1.173,1.26.208,1.707a.882.882,0,0,1-1.247.906l-1.563-.725-1.563.725A.882.882,0,0,1,182.334,107.5Zm1.934-1.915a.526.526,0,0,1,.222.049l1.5.7-.2-1.644a.527.527,0,0,1,.137-.423l1.129-1.212-1.627-.318a.527.527,0,0,1-.359-.261l-.806-1.449-.806,1.449a.527.527,0,0,1-.359.261l-1.627.318,1.129,1.212a.527.527,0,0,1,.137.423l-.2,1.644,1.5-.7A.525.525,0,0,1,184.268,105.586Z" transform="translate(-170.761 -94.536)" fill="#fff"/>
    <path id="Path_466" data-name="Path 466" d="M24.642,7.277H24.5V1.829A1.831,1.831,0,0,0,22.675,0H4.3A1.831,1.831,0,0,0,2.468,1.829V7.277H2.331A2.333,2.333,0,0,0,0,9.608V24.642a2.333,2.333,0,0,0,2.331,2.331H24.642a2.333,2.333,0,0,0,2.331-2.331V19.507a.527.527,0,1,0-1.054,0V22.89l-6.687-6.076,6.687-5.526v3.455a.527.527,0,1,0,1.054,0V9.608A2.333,2.333,0,0,0,24.642,7.277ZM3.522,1.829A.777.777,0,0,1,4.3,1.054H22.675a.777.777,0,0,1,.776.776V11.961l-8.663,7.158h-2.6L3.522,11.961ZM1.054,11.288l6.687,5.526L1.054,22.89Zm0-1.68A1.278,1.278,0,0,1,2.331,8.331h.137V11.09L1.054,9.922ZM25.919,24.314v.328a1.279,1.279,0,0,1-1.277,1.277H2.331a1.279,1.279,0,0,1-1.277-1.277v-.328l7.508-6.822,3.1,2.56a.527.527,0,0,0,.336.121h2.983a.527.527,0,0,0,.336-.121l3.1-2.56ZM24.5,8.331h.137a1.278,1.278,0,0,1,1.277,1.277v.314L24.5,11.09Z" transform="translate(0 0)" fill="#fff"/>
    <g id="Group_4374" data-name="Group 4374" transform="translate(25.92 16.59)">
      <path id="Path_467" data-name="Path 467" d="M492.546,315.962a.527.527,0,1,1,.516-.424A.531.531,0,0,1,492.546,315.962Z" transform="translate(-492.021 -314.909)" fill="#fff"/>
    </g>
  </g>
</svg>
