<svg xmlns="http://www.w3.org/2000/svg" width="26.973" height="28.199" viewBox="0 0 26.973 28.199">
  <g id="logout-white" transform="translate(0 28.199) rotate(-90)">
    <path id="Path_472" data-name="Path 472" d="M18.7,1.839H.92A.92.92,0,1,1,.92,0H18.7a.92.92,0,1,1,0,1.839Zm0,0" transform="translate(8.582 12.567)" fill="#fff"/>
    <path id="Path_473" data-name="Path 473" d="M5.823,11.648a.912.912,0,0,1-.65-.27l-4.9-4.9a.92.92,0,0,1,0-1.3l4.9-4.9a.92.92,0,0,1,1.3,1.3L2.22,5.824l4.254,4.254a.919.919,0,0,1-.651,1.569Zm0,0" transform="translate(8.583 7.662)" fill="#fff"/>
    <path id="Path_474" data-name="Path 474" d="M13.486,26.973A13.486,13.486,0,1,1,26.039,8.553a.92.92,0,1,1-1.712.673,11.647,11.647,0,1,0,0,8.522.92.92,0,1,1,1.712.673,13.418,13.418,0,0,1-12.552,8.552Zm0,0" fill="#fff"/>
  </g>
</svg>
