<svg xmlns="http://www.w3.org/2000/svg" width="35.389" height="35.345" viewBox="0 0 35.389 35.345">
  <g id="service_menu_icon" transform="translate(0 -0.313)">
    <g id="Group_4753" data-name="Group 4753" transform="translate(0 0.313)">
      <path id="Path_1374" data-name="Path 1374" d="M403.02,37.252H398.5a.518.518,0,1,0,0,1.037h4.523a.518.518,0,0,0,0-1.037Z" transform="translate(-370.47 -34.699)" fill="#fff"/>
      <path id="Path_1375" data-name="Path 1375" d="M361.334,38.289h.551a.518.518,0,1,0,0-1.037h-.551a.518.518,0,1,0,0,1.037Z" transform="translate(-335.877 -34.699)" fill="#fff"/>
      <path id="Path_1376" data-name="Path 1376" d="M361.334,73.521h7.092a.518.518,0,0,0,0-1.037h-7.092a.518.518,0,1,0,0,1.037Z" transform="translate(-335.877 -67.496)" fill="#fff"/>
      <path id="Path_1377" data-name="Path 1377" d="M27.332,57.171a9.468,9.468,0,0,0-1.951-5.744l.1-1.77a2.108,2.108,0,0,0-2.107-2.224H17.7a.989.989,0,0,1-.419-.808V45.178a5.873,5.873,0,0,0,1.951-1.99h1a2.107,2.107,0,0,0,2.1-2.1V37.212a1.67,1.67,0,0,0-.943-1.5V32.992a2.246,2.246,0,0,0-2.243-2.243h-.058a.064.064,0,0,1-.064-.064,2.246,2.246,0,0,0-2.243-2.243H11.3a4.948,4.948,0,0,0-4.942,4.942v2.325a1.67,1.67,0,0,0-.943,1.5v1.969a1.673,1.673,0,0,0,1.671,1.671H7.75a5.822,5.822,0,0,0,1.937,3.733,7.109,7.109,0,0,0,.782.587v1.453a.99.99,0,0,1-.421.808H4.376a2.108,2.108,0,0,0-2.107,2.224l.1,1.77A9.468,9.468,0,0,0,.415,57.171v1.953a1.632,1.632,0,0,0,1.218,2.719H26.114a1.632,1.632,0,0,0,1.218-2.719Zm-1.037,0v1.416a1.639,1.639,0,0,0-.182-.01h-1.12l.293-5.391A8.423,8.423,0,0,1,26.3,57.171ZM21.247,36.959a.631.631,0,0,1,.053.253v1.969a.635.635,0,0,1-.634.634H20.05V37.861l.319-.111A1.527,1.527,0,0,0,21.247,36.959Zm-3.461,6.006h-1.3a.38.38,0,1,1,0-.761h1.3a.38.38,0,0,1,0,.761Zm2.446-.814h-.524a6.1,6.1,0,0,0,.3-1.3h.658a1.661,1.661,0,0,0,.634-.125v.357A1.069,1.069,0,0,1,20.232,42.151ZM7.39,33.383A3.91,3.91,0,0,1,11.3,29.478h5.49a1.208,1.208,0,0,1,1.207,1.207,1.1,1.1,0,0,0,1.1,1.1h.058a1.208,1.208,0,0,1,1.206,1.207v3.315a.491.491,0,0,1-.329.463l-1.089.379a.067.067,0,0,1-.089-.064l0-2.06a2.4,2.4,0,0,0-3.374-2.181,5.51,5.51,0,0,1-3.208,0A2.406,2.406,0,0,0,8.9,35.025l0,2.062a.067.067,0,0,1-.089.064l-1.09-.379a.491.491,0,0,1-.329-.463V33.383Zm-.943,5.8V37.212a.631.631,0,0,1,.053-.253,1.527,1.527,0,0,0,.878.791l.319.111v1.954H7.081A.635.635,0,0,1,6.447,39.181Zm2.3,1.072c-.017-.682-.007-1.4-.01-2.067.032,0,.064,0,.1,0a1.1,1.1,0,0,0,1.1-1.105l0-2.063c0-.842.752-1.6,2.02-1.19a6.526,6.526,0,0,0,3.843,0c1.208-.388,2.024.3,2.02,1.191l0,2.061a1.1,1.1,0,0,0,1.2,1.1v2.109a5.113,5.113,0,0,1-.214,1.3,1.412,1.412,0,0,0-1.013-.428h-1.3a1.417,1.417,0,1,0,0,2.834h.659A5.3,5.3,0,0,1,13.9,45.159a5.083,5.083,0,0,1-5.157-4.906Zm2.763,6.373v-.907A6.319,6.319,0,0,0,13.9,46.2h.012a6.325,6.325,0,0,0,2.33-.473v.9a2.023,2.023,0,0,0,.168.808H11.338a2.018,2.018,0,0,0,.169-.808Zm-9.046,6.56.082,1.508a.518.518,0,0,0,1.035-.056L3.3,49.6A1.072,1.072,0,0,1,4.376,48.47h19A1.072,1.072,0,0,1,24.443,49.6l-.487,8.975H15.827a3.184,3.184,0,0,1,.776-1.605l.015-.017a3.683,3.683,0,0,0-.929-5.653.79.79,0,0,0-1.181.686v2.352a.2.2,0,0,1-.2.2h-.878a.2.2,0,0,1-.2-.2V51.987a.79.79,0,0,0-1.181-.686,3.683,3.683,0,0,0-.927,5.655l.013.015a3.183,3.183,0,0,1,.776,1.605H3.792l-.083-1.533a.518.518,0,1,0-1.035.056l.08,1.476H1.633a1.656,1.656,0,0,0-.182.01V57.171a8.424,8.424,0,0,1,1.009-3.985Zm10.507,5.391a4.215,4.215,0,0,0-1.053-2.3l-.013-.014a2.644,2.644,0,0,1,.3-3.809v1.885a1.234,1.234,0,0,0,1.232,1.232h.878a1.234,1.234,0,0,0,1.232-1.232V52.455a2.644,2.644,0,0,1,.3,3.81l-.011.013a4.215,4.215,0,0,0-1.053,2.3Zm13.146,2.229H1.633a.6.6,0,1,1,0-1.193H26.114a.6.6,0,1,1,0,1.193Z" transform="translate(0 -26.497)" fill="#fff"/>
      <path id="Path_1378" data-name="Path 1378" d="M339.487,3.861a.518.518,0,0,0,.518-.518v-1A2.028,2.028,0,0,0,337.98.313h-8.719a2.028,2.028,0,0,0-2.026,2.026V6.7a2.028,2.028,0,0,0,2.026,2.026.362.362,0,0,1,.362.362v2.7a.856.856,0,0,0,1.59.44L333.206,8.9a.364.364,0,0,1,.311-.176h4.464A2.028,2.028,0,0,0,340.006,6.7V5.766a.518.518,0,1,0-1.037,0V6.7a.99.99,0,0,1-.989.989h-4.464a1.406,1.406,0,0,0-1.2.679l-1.657,2.763V9.088a1.4,1.4,0,0,0-1.4-1.4.99.99,0,0,1-.989-.989V2.339a.99.99,0,0,1,.989-.989h8.719a.99.99,0,0,1,.989.989v1a.518.518,0,0,0,.518.518Z" transform="translate(-304.617 -0.313)" fill="#fff"/>
    </g>
  </g>
</svg>
